<svg id="Group_81" data-name="Group 81" xmlns="http://www.w3.org/2000/svg" viewBox="8374.75 1258.75 36.614 59.356">
  <defs>
    <style>
      .cls-1, .cls-2 {
        fill: none;
        stroke: #000;
        stroke-linejoin: round;
      }

      .cls-1 {
        stroke-miterlimit: 3.864;
        stroke-width: 6.5px;
      }

      .cls-2 {
        stroke-linecap: round;
        stroke-width: 2.5px;
      }
    </style>
  </defs>
  <line id="Line_12" data-name="Line 12" class="cls-1" y2="36.28" transform="translate(8387.5 1268.122)"/>
  <path id="Path_107" data-name="Path 107" class="cls-2" d="M20.335,35.938V8.322h0A8.328,8.328,0,0,0,12.213.2,7.974,7.974,0,0,0,4.09,8.322V35.938C1.383,38.1.3,41.353.3,45.143A12.018,12.018,0,0,0,12.213,57.056,12.018,12.018,0,0,0,24.125,45.143,13.063,13.063,0,0,0,20.335,35.938Zm5.956-3.249h8.122m-8.122-8.122h8.122M4.09,8.322H34.414m-8.122,8.122h8.122" transform="translate(8375.7 1259.8)"/>
  <circle id="Ellipse_128" data-name="Ellipse 128" cx="6.5" cy="6.5" r="6.5" transform="translate(8381 1299)"/>
</svg>
