<svg id="Group_84" data-name="Group 84" xmlns="http://www.w3.org/2000/svg" viewBox="8490 1260 57 57">
  <defs>
    <style>
      .cls-1, .cls-4 {
        fill: none;
      }

      .cls-1, .cls-2 {
        stroke: #000;
      }

      .cls-1 {
        stroke-width: 2.5px;
      }

      .cls-2 {
        stroke-width: 0.5px;
      }

      .cls-3 {
        stroke: none;
      }
    </style>
  </defs>
  <g id="Ellipse_177" data-name="Ellipse 177" class="cls-1" transform="translate(8490 1260)">
    <circle class="cls-3" cx="28.5" cy="28.5" r="28.5"/>
    <circle class="cls-4" cx="28.5" cy="28.5" r="27.25"/>
  </g>
  <g id="Group_83" data-name="Group 83" transform="translate(8501.066 1270.049)">
    <circle id="Ellipse_178" data-name="Ellipse 178" class="cls-2" cx="0.86" cy="0.86" r="0.86" transform="translate(12.994 12.201)"/>
    <circle id="Ellipse_179" data-name="Ellipse 179" class="cls-2" cx="0.86" cy="0.86" r="0.86" transform="translate(10.845 10.051)"/>
    <circle id="Ellipse_180" data-name="Ellipse 180" class="cls-2" cx="0.86" cy="0.86" r="0.86" transform="translate(8.695 7.901)"/>
    <circle id="Ellipse_181" data-name="Ellipse 181" class="cls-2" cx="0.86" cy="0.86" r="0.86" transform="translate(6.115 5.321)"/>
    <circle id="Ellipse_182" data-name="Ellipse 182" class="cls-2" cx="0.86" cy="0.86" r="0.86" transform="translate(3.965 3.171)"/>
    <circle id="Ellipse_183" data-name="Ellipse 183" class="cls-2" cx="0.86" cy="0.86" r="0.86" transform="matrix(0.221, -0.975, 0.975, 0.221, 6.223, 17.603)"/>
    <circle id="Ellipse_184" data-name="Ellipse 184" class="cls-2" cx="0.86" cy="0.86" r="0.86" transform="matrix(0.221, -0.975, 0.975, 0.221, 4.925, 15.446)"/>
    <circle id="Ellipse_185" data-name="Ellipse 185" class="cls-2" cx="0.86" cy="0.86" r="0.86" transform="matrix(0.221, -0.975, 0.975, 0.221, 3.301, 12.775)"/>
    <circle id="Ellipse_186" data-name="Ellipse 186" class="cls-2" cx="0.86" cy="0.86" r="0.86" transform="matrix(0.221, -0.975, 0.975, 0.221, 1.584, 10.523)"/>
    <circle id="Ellipse_187" data-name="Ellipse 187" class="cls-2" cx="0.86" cy="0.86" r="0.86" transform="matrix(0.221, -0.975, 0.975, 0.221, 0.38, 7.947)"/>
    <circle id="Ellipse_188" data-name="Ellipse 188" class="cls-2" cx="0.86" cy="0.86" r="0.86" transform="translate(19.576 5.717) rotate(-21.852)"/>
    <circle id="Ellipse_189" data-name="Ellipse 189" class="cls-2" cx="0.86" cy="0.86" r="0.86" transform="matrix(0.249, -0.969, 0.969, 0.249, 22.135, 4.653)"/>
    <circle id="Ellipse_190" data-name="Ellipse 190" class="cls-2" cx="0.86" cy="0.86" r="0.86" transform="translate(25.073 3.037) rotate(-39.954)"/>
    <circle id="Ellipse_191" data-name="Ellipse 191" class="cls-2" cx="0.86" cy="0.86" r="0.86" transform="translate(28.432 4.071) rotate(-3.214)"/>
    <circle id="Ellipse_192" data-name="Ellipse 192" class="cls-2" cx="0.86" cy="0.86" r="0.86" transform="matrix(0.564, -0.826, 0.826, 0.564, 29.436, 8.114)"/>
    <circle id="Ellipse_193" data-name="Ellipse 193" class="cls-2" cx="0.86" cy="0.86" r="0.86" transform="translate(28.669 10.326) rotate(-14.495)"/>
    <circle id="Ellipse_194" data-name="Ellipse 194" class="cls-2" cx="0.86" cy="0.86" r="0.86" transform="translate(31.413 13.052) rotate(-76.243)"/>
    <circle id="Ellipse_195" data-name="Ellipse 195" class="cls-2" cx="0.86" cy="0.86" r="0.86" transform="matrix(0.708, -0.706, 0.706, 0.708, 33.654, 14.221)"/>
    <circle id="Ellipse_196" data-name="Ellipse 196" class="cls-2" cx="0.86" cy="0.86" r="0.86" transform="translate(34.312 16.73) rotate(-12.193)"/>
    <circle id="Ellipse_197" data-name="Ellipse 197" class="cls-2" cx="0.86" cy="0.86" r="0.86" transform="translate(33.392 20.812) rotate(-69.617)"/>
    <circle id="Ellipse_198" data-name="Ellipse 198" class="cls-2" cx="0.86" cy="0.86" r="0.86" transform="translate(30.658 22.021) rotate(-36.313)"/>
    <circle id="Ellipse_199" data-name="Ellipse 199" class="cls-2" cx="0.86" cy="0.86" r="0.86" transform="translate(28.454 22.539) rotate(-1.469)"/>
    <circle id="Ellipse_200" data-name="Ellipse 200" class="cls-2" cx="0.86" cy="0.86" r="0.86" transform="translate(26.73 19.53) rotate(-1.469)"/>
    <circle id="Ellipse_201" data-name="Ellipse 201" class="cls-2" cx="0.86" cy="0.86" r="0.86" transform="translate(28.717 27.067) rotate(-67.543)"/>
    <circle id="Ellipse_202" data-name="Ellipse 202" class="cls-2" cx="0.86" cy="0.86" r="0.86" transform="translate(27.581 29.77) rotate(-44.757)"/>
    <circle id="Ellipse_203" data-name="Ellipse 203" class="cls-2" cx="0.86" cy="0.86" r="0.86" transform="matrix(0.924, -0.382, 0.382, 0.924, 25.565, 31.976)"/>
    <circle id="Ellipse_204" data-name="Ellipse 204" class="cls-2" cx="0.86" cy="0.86" r="0.86" transform="translate(22.884 33.7)"/>
    <circle id="Ellipse_205" data-name="Ellipse 205" class="cls-2" cx="0.86" cy="0.86" r="0.86" transform="translate(19.705 35.238) rotate(-67.697)"/>
    <circle id="Ellipse_206" data-name="Ellipse 206" class="cls-2" cx="0.86" cy="0.86" r="0.86" transform="translate(15.974 33.771) rotate(-44.749)"/>
    <circle id="Ellipse_207" data-name="Ellipse 207" class="cls-2" cx="0.86" cy="0.86" r="0.86" transform="matrix(0.913, -0.408, 0.408, 0.913, 14.077, 31.562)"/>
    <circle id="Ellipse_208" data-name="Ellipse 208" class="cls-2" cx="0.86" cy="0.86" r="0.86" transform="translate(16.019 29.299) rotate(-45.194)"/>
    <circle id="Ellipse_209" data-name="Ellipse 209" class="cls-2" cx="0.86" cy="0.86" r="0.86" transform="translate(11.596 32.524) rotate(-6.771)"/>
    <circle id="Ellipse_210" data-name="Ellipse 210" class="cls-2" cx="0.86" cy="0.86" r="0.86" transform="translate(8.629 34.584) rotate(-75.427)"/>
    <circle id="Ellipse_211" data-name="Ellipse 211" class="cls-2" cx="0.86" cy="0.86" r="0.86" transform="translate(5.208 33.493) rotate(-54.767)"/>
    <circle id="Ellipse_212" data-name="Ellipse 212" class="cls-2" cx="0.86" cy="0.86" r="0.86" transform="translate(2.839 31.665) rotate(-34.071)"/>
    <circle id="Ellipse_213" data-name="Ellipse 213" class="cls-2" cx="0.86" cy="0.86" r="0.86" transform="translate(0.784 28.793) rotate(-13.309)"/>
    <circle id="Ellipse_214" data-name="Ellipse 214" class="cls-2" cx="0.86" cy="0.86" r="0.86" transform="translate(-0.029 27.307) rotate(-82.733)"/>
    <circle id="Ellipse_215" data-name="Ellipse 215" class="cls-2" cx="0.86" cy="0.86" r="0.86" transform="translate(0.085 23.607) rotate(-62.082)"/>
    <circle id="Ellipse_216" data-name="Ellipse 216" class="cls-2" cx="0.86" cy="0.86" r="0.86" transform="translate(1.198 20.812) rotate(-41.437)"/>
    <circle id="Ellipse_217" data-name="Ellipse 217" class="cls-2" cx="0.86" cy="0.86" r="0.86" transform="matrix(0.939, -0.344, 0.344, 0.939, 3.248, 17.772)"/>
    <circle id="Ellipse_218" data-name="Ellipse 218" class="cls-2" cx="0.86" cy="0.86" r="0.86" transform="matrix(0.3, -0.954, 0.954, 0.3, 26.031, 13.774)"/>
    <circle id="Ellipse_219" data-name="Ellipse 219" class="cls-2" cx="0.86" cy="0.86" r="0.86" transform="translate(19.2 9.87) rotate(-57.281)"/>
    <circle id="Ellipse_220" data-name="Ellipse 220" class="cls-2" cx="0.86" cy="0.86" r="0.86" transform="translate(16.577 4.475) rotate(-21.852)"/>
    <circle id="Ellipse_221" data-name="Ellipse 221" class="cls-2" cx="0.86" cy="0.86" r="0.86" transform="translate(13.978 3.074) rotate(-21.852)"/>
    <circle id="Ellipse_222" data-name="Ellipse 222" class="cls-2" cx="0.86" cy="0.86" r="0.86" transform="translate(10.98 1.833) rotate(-21.852)"/>
    <circle id="Ellipse_223" data-name="Ellipse 223" class="cls-2" cx="0.86" cy="0.86" r="0.86" transform="translate(7.982 0.591) rotate(-21.852)"/>
  </g>
</svg>
